Chimpanzees Analysis, continued
…
The p-value is 0.0494, which is borderline significant. If we set the significance level to 0.05, we would reject the null hypothesis that the psychic was randomly guessing.

Lecture: CI for a Difference of Proportions

Data

chimps <- read_csv("../../data/chimpanzee.csv") %>%
  mutate(with_partner = case_when(
    partner == "none" ~ FALSE,
    TRUE ~ TRUE)) %>%
  select(actor,partner,with_partner,everything())

chimps

## # A tibble: 27 x 7
##    actor partner with_partner prosocial selfish prosocial_color selfish_color
##    <chr> <chr>   <lgl>            <dbl>   <dbl> <chr>           <chr>        
##  1 A     I       TRUE                22       8 green           purple       
##  2 A     G       TRUE                16      14 yellow          black        
##  3 A     H       TRUE                22       8 blue            red          
##  4 A     none    FALSE               16      14 pink            gray         
##  5 B     H       TRUE                18      12 black           yellow       
##  6 B     C       TRUE                23       7 purple          green        
##  7 B     D       TRUE                19      11 blue            red          
##  8 B     none    FALSE               16      14 gray            pink         
##  9 C     B       TRUE                18      12 yellow          black        
## 10 C     F       TRUE                19      11 red             blue         
## #  with 17 more rows
…
